Dr. Memory version 2.5.0 build 0 built on Oct 18 2021 03:01:22
Windows version: WinVer=105;Rel=2004;Build=19041;Edition=Professional
Dr. Memory results for pid 2544: "lr3t5.exe"
Application cmdline: "D:\Users\Shmakov_A\CLionProjects\oop\cmake-build-debug\lr3t5.exe"
Recorded 124 suppression(s) from default D:\Users\Shmakov_A\Desktop\DrMemory-Windows-2.5.0\bin64\suppress-default.txt

Error #1: UNADDRESSABLE ACCESS beyond top of stack: reading 0x000000722edff850-0x000000722edff858 8 byte(s)
# 0 .text
# 1 _pei386_runtime_relocator
# 2 __tmainCRTStartup
# 3 .l_start
# 4 KERNEL32.dll!BaseThreadInitThunk
Note: @0:00:00.172 in thread 14428
Note: 0x000000722edff850 refers to 744 byte(s) beyond the top of the stack 0x000000722edffb38
Note: instruction: or     $0x0000000000000000 (%rcx) -> (%rcx)

Error #2: POSSIBLE LEAK 82 direct bytes 0x000001df260001c0-0x000001df26000212 + 0 indirect bytes
# 0 replace_malloc                    [d:\a\drmemory\drmemory\common\alloc_replace.c:2580]
# 1 msvcrt.dll!malloc_crt
# 2 msvcrt.dll!_setargv
# 3 msvcrt.dll!_getmainargs
# 4 pre_cpp_init
# 5 msvcrt.dll!initterm
# 6 __tmainCRTStartup
# 7 .l_start
# 8 KERNEL32.dll!BaseThreadInitThunk

===========================================================================
FINAL SUMMARY:

DUPLICATE ERROR COUNTS:
	Error #   1:      2

SUPPRESSIONS USED:

ERRORS FOUND:
      1 unique,     2 total unaddressable access(es)
      0 unique,     0 total uninitialized access(es)
      0 unique,     0 total invalid heap argument(s)
      0 unique,     0 total GDI usage error(s)
      0 unique,     0 total handle leak(s)
      0 unique,     0 total warning(s)
      0 unique,     0 total,      0 byte(s) of leak(s)
      1 unique,     1 total,     82 byte(s) of possible leak(s)
ERRORS IGNORED:
      2 potential error(s) (suspected false positives)
         (details: D:\Users\Shmakov_A\Desktop\DrMemory-Windows-2.5.0\drmemory\logs\DrMemory-lr3t5.exe.2544.000\potential_errors.txt)
      6 unique,     6 total,    857 byte(s) of still-reachable allocation(s)
         (re-run with "-show_reachable" for details)
Details: D:\Users\Shmakov_A\Desktop\DrMemory-Windows-2.5.0\drmemory\logs\DrMemory-lr3t5.exe.2544.000\results.txt
